Chapter 1 Introdução aos dados em R | Inferência Estatística via Ciências dos Dados
…
airlines: Uma tabela que relaciona os nomes das linhas aéreas aos seus respectivos códigos de duas letras da Associação Internacional de Transporte Aéreo (IATA na sigla em inglês) para cada uma das 16 companias aéreas. Por exemplo, “DL” é o código de duas letras para a Delta.

planes: Informações sobre cada uma das 3,322 aeronaves utilizadas.

weather: Dados metereológicos por hora de cada um dos três aeroportos de Nova Iorque. Estes dados têm 26,115 linhas, correspondendo a aproximadamente \(365 \times 24 \times 3 = 26,280\) medições possíveis por hora que se pode observar nas três localidades no curso de um ano.

aeroportos: Nomes, códigos e localidades dos 1,458 destinos domésticos.

1.4.2 O data frame flights

Nós começaremos explorando o data frama flights para ter uma ideia da sua estrutura. Rode o código abaixo no seu console, seja digitando-o, seja copiando-e-colando. Ele exibe o conteúdo do data frame flights no seu console. Note que dependendo do tamanho do seu monitor, a saída pode variar ligeiramente.

flights

# A tibble: 336,776 x 19
    year month   day dep_time sched_dep_time dep_delay arr_time sched_arr_time
   <int> <int> <int>    <int>          <int>     <dbl>    <int>          <int>
 1  2013     1     1      517            515         2      830            819
 2  2013     1     1      533            529         4      850            830
 3  2013     1     1      542            540         2      923            850
 4  2013     1     1      544            545        -1     1004           1022
 5  2013     1     1      554            600        -6      812            837
 6  2013     1     1      554            558        -4      740            728
 7  2013     1     1      555            600        -5      913            854
 8  2013     1     1      557            600        -3      709            723
 9  2013     1     1      557            600        -3      838            846
10  2013     1     1      558            600        -2      753            745
# … with 336,766 more rows, and 11 more variables: arr_delay <dbl>,
#   carrier <chr>, flight <int>, tailnum <chr>, origin <chr>, dest <chr>,
#   air_time <dbl>, distance <dbl>, hour <dbl>, minute <dbl>, time_hour <dttm>
…
